{
  "status": {
    "code": 10000,
    "description": "Ok"
  },
  "outputs": [{
    "id": "d626c042820947ed9025d8e5f1a5dea2",
    "status": {
      "code": 10000,
      "description": "Ok"
    },
    "created_at": "2018-02-11T13:26:21.041325221Z",
    "model": {
      "id": "aaa03c23b3724a16a56b629203edc62c",
      "name": "general-v1.3",
      "created_at": "2016-03-09T17:11:39.608845Z",
      "app_id": "main",
      "output_info": {
        "message": "Show output_info with: GET /models/{model_id}/output_info",
        "type": "concept",
        "type_ext": "concept"
      },
      "model_version": {
        "id": "aa9ca48295b37401f8af92ad1af0d91d",
        "created_at": "2016-07-13T01:19:12.147644Z",
        "status": {
          "code": 21100,
          "description": "Model trained successfully"
        }
      },
      "display_name": "General"
    },
    "input": {
      "id": "c9924441d52c432382271de53ab96852",
      "data": {
        "image": {
          "url": "https://s3.amazonaws.com/clarifai-api/img2/prod/small/e817dce74730419cbdda6f1c866a9470/fba0319a29084a74a3b4373ef9ef0fe3",
          "base64": "true"
        }
      }
    },
    "data": {
      "concepts": [{
        "id": "ai_Z99jRfN3",
        "name": "uncooked",
        "value": 0.99313736,
        "app_id": "main"
      }, {
        "id": "ai_nl2sV1Hm",
        "name": "nutrition",
        "value": 0.9903147,
        "app_id": "main"
      }, {
        "id": "ai_jG6LGcdJ",
        "name": "cereal",
        "value": 0.9889448,
        "app_id": "main"
      }, {
        "id": "ai_9FHh1kDQ",
        "name": "dry",
        "value": 0.9885268,
        "app_id": "main"
      }, {
        "id": "ai_0mCQLwrm",
        "name": "healthy",
        "value": 0.9864603,
        "app_id": "main"
      }, {
        "id": "ai_Lq00FggW",
        "name": "desktop",
        "value": 0.9782461,
        "app_id": "main"
      }, {
        "id": "ai_3PlgVmlN",
        "name": "food",
        "value": 0.976822,
        "app_id": "main"
      }, {
        "id": "ai_nf4g9ptf",
        "name": "seed",
        "value": 0.9753649,
        "app_id": "main"
      }, {
        "id": "ai_Cp0N9mF9",
        "name": "diet",
        "value": 0.97232735,
        "app_id": "main"
      }, {
        "id": "ai_JXGKXdzM",
        "name": "batch",
        "value": 0.9629024,
        "app_id": "main"
      }, {
        "id": "ai_jQ3Q23RN",
        "name": "wheat",
        "value": 0.9615228,
        "app_id": "main"
      }, {
        "id": "ai_x13gVP4T",
        "name": "corn",
        "value": 0.9607529,
        "app_id": "main"
      }, {
        "id": "ai_FV7K7zJh",
        "name": "pile",
        "value": 0.9590953,
        "app_id": "main"
      }, {
        "id": "ai_mZ2tl6cW",
        "name": "health",
        "value": 0.9584389,
        "app_id": "main"
      }, {
        "id": "ai_RN5RQc3j",
        "name": "legume",
        "value": 0.9395133,
        "app_id": "main"
      }, {
        "id": "ai_LNw3L7mQ",
        "name": "meal",
        "value": 0.9376399,
        "app_id": "main"
      }, {
        "id": "ai_T6D61WC2",
        "name": "bean",
        "value": 0.9338186,
        "app_id": "main"
      }, {
        "id": "ai_LpcgM7r5",
        "name": "vegetable",
        "value": 0.93189955,
        "app_id": "main"
      }, {
        "id": "ai_b9630j3D",
        "name": "lentil",
        "value": 0.92913616,
        "app_id": "main"
      }, {
        "id": "ai_1lP8bJRR",
        "name": "crop",
        "value": 0.92361784,
        "app_id": "main"
      }]
    }
  }],
  "rawData": {
    "status": {
      "code": 10000,
      "description": "Ok"
    },
    "outputs": [{
      "id": "d626c042820947ed9025d8e5f1a5dea2",
      "status": {
        "code": 10000,
        "description": "Ok"
      },
      "created_at": "2018-02-11T13:26:21.041325221Z",
      "model": {
        "id": "aaa03c23b3724a16a56b629203edc62c",
        "name": "general-v1.3",
        "created_at": "2016-03-09T17:11:39.608845Z",
        "app_id": "main",
        "output_info": {
          "message": "Show output_info with: GET /models/{model_id}/output_info",
          "type": "concept",
          "type_ext": "concept"
        },
        "model_version": {
          "id": "aa9ca48295b37401f8af92ad1af0d91d",
          "created_at": "2016-07-13T01:19:12.147644Z",
          "status": {
            "code": 21100,
            "description": "Model trained successfully"
          }
        },
        "display_name": "General"
      },
      "input": {
        "id": "c9924441d52c432382271de53ab96852",
        "data": {
          "image": {
            "url": "https://s3.amazonaws.com/clarifai-api/img2/prod/small/e817dce74730419cbdda6f1c866a9470/fba0319a29084a74a3b4373ef9ef0fe3",
            "base64": "true"
          }
        }
      },
      "data": {
        "concepts": [{
          "id": "ai_Z99jRfN3",
          "name": "uncooked",
          "value": 0.99313736,
          "app_id": "main"
        }, {
          "id": "ai_nl2sV1Hm",
          "name": "nutrition",
          "value": 0.9903147,
          "app_id": "main"
        }, {
          "id": "ai_jG6LGcdJ",
          "name": "cereal",
          "value": 0.9889448,
          "app_id": "main"
        }, {
          "id": "ai_9FHh1kDQ",
          "name": "dry",
          "value": 0.9885268,
          "app_id": "main"
        }, {
          "id": "ai_0mCQLwrm",
          "name": "healthy",
          "value": 0.9864603,
          "app_id": "main"
        }, {
          "id": "ai_Lq00FggW",
          "name": "desktop",
          "value": 0.9782461,
          "app_id": "main"
        }, {
          "id": "ai_3PlgVmlN",
          "name": "food",
          "value": 0.976822,
          "app_id": "main"
        }, {
          "id": "ai_nf4g9ptf",
          "name": "seed",
          "value": 0.9753649,
          "app_id": "main"
        }, {
          "id": "ai_Cp0N9mF9",
          "name": "diet",
          "value": 0.97232735,
          "app_id": "main"
        }, {
          "id": "ai_JXGKXdzM",
          "name": "batch",
          "value": 0.9629024,
          "app_id": "main"
        }, {
          "id": "ai_jQ3Q23RN",
          "name": "wheat",
          "value": 0.9615228,
          "app_id": "main"
        }, {
          "id": "ai_x13gVP4T",
          "name": "corn",
          "value": 0.9607529,
          "app_id": "main"
        }, {
          "id": "ai_FV7K7zJh",
          "name": "pile",
          "value": 0.9590953,
          "app_id": "main"
        }, {
          "id": "ai_mZ2tl6cW",
          "name": "health",
          "value": 0.9584389,
          "app_id": "main"
        }, {
          "id": "ai_RN5RQc3j",
          "name": "legume",
          "value": 0.9395133,
          "app_id": "main"
        }, {
          "id": "ai_LNw3L7mQ",
          "name": "meal",
          "value": 0.9376399,
          "app_id": "main"
        }, {
          "id": "ai_T6D61WC2",
          "name": "bean",
          "value": 0.9338186,
          "app_id": "main"
        }, {
          "id": "ai_LpcgM7r5",
          "name": "vegetable",
          "value": 0.93189955,
          "app_id": "main"
        }, {
          "id": "ai_b9630j3D",
          "name": "lentil",
          "value": 0.92913616,
          "app_id": "main"
        }, {
          "id": "ai_1lP8bJRR",
          "name": "crop",
          "value": 0.92361784,
          "app_id": "main"
        }]
      }
    }]
  }
}
